Project 1: Duolingo Spaced Repetition Data
…
I will also be making a new data frame that encompass data focused on each unique user_ids rather than target word

# Calculating the avg of history_recall and p_recall of all tested words for each user_id

user_summary <- duo_data |>
  group_by(user_id) |>
  summarize(avg_history_recall = mean(history_recall, na.rm = TRUE),
            avg_p_recall = mean(p_recall, na.rm = TRUE)) |>
  ungroup()

user_summary

# A tibble: 115,222 × 3
   user_id avg_history_recall avg_p_recall
   <fct>                <dbl>        <dbl>
 1 u:--N                0.875        0.810
 2 u:--U                0.905        0.929
 3 u:-_-                0.912        0.905
 4 u:-_D                0.929        0.5  
 5 u:-3I                0.905        0.9  
 6 u:-3n                0.894        0.830
 7 u:-4V                0.932        0.874
 8 u:-4y                0.919        0.944
 9 u:-5I                0.801        0.885
10 u:-69                0.892        0.811
# ℹ 115,212 more rows
…
# Calculate the average delta for each user_id
avg_delta <- duo_data %>%
  group_by(user_id) %>%
  summarize(avg_delta = mean(delta, na.rm = TRUE))

user_summary <- left_join(user_summary, user_counts, by = "user_id")
user_summary <- left_join(user_summary, avg_delta, by = "user_id")

user_summary

# A tibble: 115,222 × 5
   user_id avg_history_recall avg_p_recall num_occurrences avg_delta
   <fct>                <dbl>        <dbl>           <int>     <dbl>
 1 u:--N                0.875        0.810              32 15105609.
 2 u:--U                0.905        0.929               7  5608727 
 3 u:-_-                0.912        0.905             152   671605.
 4 u:-_D                0.929        0.5                14 12767600.
 5 u:-3I                0.905        0.9                14   283420.
 6 u:-3n                0.894        0.830             124 11269398.
 7 u:-4V                0.932        0.874             215  3142199.
 8 u:-4y                0.919        0.944              68  5354884.
 9 u:-5I                0.801        0.885              39   629067.
10 u:-69                0.892        0.811              15 13550005.
# ℹ 115,212 more rows
Note: Interestingly, it appears the data set collected information from 100 unique participants. This was not informed on the kaggle website

Exploratory Data Analysis

Now, I will proceed with exploring the data and answering the questions that were previously mentioned.

1. How effective is the spaced repetition approach employed by Duolingo?

spaced_repetition_effectiveness <- duo_data |>
  group_by(lexeme_id) |>
  summarise(avg_p_recall = mean(p_recall))

spaced_repetition_effectiveness

# A tibble: 19,279 × 2
   lexeme_id                        avg_p_recall
   <fct>                                   <dbl>
 1 00022efc4121667defd065c88569e748        0.798
 2 00064bf8c1c3cefa80b193acf7b9fe1d        0.628
 3 000b96cf611dad846fda922f6e568298        1    
 4 000d2eb6a5658fa17f828c5fb0c66c11        0.910
 5 000f3063358c188d171d903ec5a7855c        0.819
 6 001635bcb24496cf2b27731c3708dbfa        0.941
 7 001973dce2d92d8d691f7ee9620c0c59        0.833
 8 001d7ebf4f57d36de6a98348294ec07f        0.667
 9 0022e9c57d77dc7992f3aea7be6a53bc        0.908
10 0023799f4a7ed08c8dc3591efee8c049        0.957
# ℹ 19,269 more rows
…
user_ui_language <- distinct(duo_data, user_id, ui_language)

user_ui_language <- user_ui_language |>
  group_by(user_id) |>
  summarize(ui_languages = toString(ui_language))

# Merge the ui_language information into user_summary
user_summary <- user_summary |>
  left_join(user_ui_language, by = "user_id")

user_summary

# A tibble: 115,222 × 7
   user_id avg_history_recall avg_p_recall num_occurrences avg_delta learning   
   <fct>                <dbl>        <dbl>           <int>     <dbl> <chr>      
 1 u:--N                0.875        0.810              32 15105609. German     
 2 u:--U                0.905        0.929               7  5608727  German     
 3 u:-_-                0.912        0.905             152   671605. German     
 4 u:-_D                0.929        0.5                14 12767600. Spanish    
 5 u:-3I                0.905        0.9                14   283420. French     
 6 u:-3n                0.894        0.830             124 11269398. Spanish    
 7 u:-4V                0.932        0.874             215  3142199. German, Fr…
 8 u:-4y                0.919        0.944              68  5354884. Spanish    
 9 u:-5I                0.801        0.885              39   629067. German     
10 u:-69                0.892        0.811              15 13550005. French     
# ℹ 115,212 more rows
# ℹ 1 more variable: ui_languages <chr>

4. What are the most challenging words for users?

I will reuse the data frame from question 1.

top_challenging_lexemes <- spaced_repetition_effectiveness |>
  arrange(avg_p_recall) |>
  head(100)

top_challenging_lexemes

# A tibble: 100 × 2
   lexeme_id                        avg_p_recall
   <fct>                                   <dbl>
 1 01887462f7ebffbd51e1ce584f52ab46            0
 2 032d211238829c77fcae70ba6cbd9baa            0
 3 0448efe1a8ce9a9a82591211c6851319            0
 4 056f2cd86a76d02956cc3b4166ddf8d5            0
 5 05bcf33b480493bba79420cd3fda19bf            0
 6 0849ef6f8c6a8bc3e852bba498399fd5            0
 7 0adb615b97a994c771898fd19a2824e4            0
 8 0bb66e53a0b008ca866b10f37819e48e            0
 9 114bb084c98f5ca1a1e1a4e4424c0940            0
10 11721ecdb20febdc3a42e12f21704502            0
# ℹ 90 more rows

Bonus sub-question: what type of words are participants are having most difficulty recalling?

# Merge top_challenging_lexemes with duo_data to get lexeme_string
challenging_lexemes_with_string <- top_challenging_lexemes |>
  left_join(duo_data, by = "lexeme_id") |>
  select(lexeme_id, lexeme_string, p_recall)

# View the correlated lexeme_id and lexeme_string
challenging_lexemes_with_string

# A tibble: 119 × 3
   lexeme_id                        lexeme_string                       p_recall
   <fct>                            <chr>                                  <dbl>
 1 01887462f7ebffbd51e1ce584f52ab46 dis/dire<vblex><pri><p2><sg>               0
 2 032d211238829c77fcae70ba6cbd9baa <*sf>/limite<n><f><*numb>                  0
 3 0448efe1a8ce9a9a82591211c6851319 olhos/olho<n><m><pl>                       0
 4 056f2cd86a76d02956cc3b4166ddf8d5 revoir/revoir<vblex><inf>                  0
 5 05bcf33b480493bba79420cd3fda19bf gruppen/gruppe<n><f><pl><dat>              0
 6 0849ef6f8c6a8bc3e852bba498399fd5 beschluss/beschluss<n><m><sg><*cas…        0
 7 0adb615b97a994c771898fd19a2824e4 <*sf>/notion<n><f><*numb>                  0
 8 0adb615b97a994c771898fd19a2824e4 <*sf>/notion<n><f><*numb>                  0
 9 0bb66e53a0b008ca866b10f37819e48e parlais/parler<vblex><pii><p2><sg>         0
10 0bb66e53a0b008ca866b10f37819e48e parlais/parler<vblex><pii><p2><sg>         0
# ℹ 109 more rows
…
